…
    ## [1] 21

``` r
n_distinct(movies$genre2)
```

    ## [1] 20

``` r
#Count number of each value
movies %>% count(genre1)
```

    ## # A tibble: 21 x 2
    ##    genre1          n
    ##  * <chr>       <int>
    ##  1 Action        276
    ##  2 Adventure      89
    ##  3 Animation      33
    ##  4 Comedy        326
    ##  5 Crime          77
    ##  6 Documentary    20
    ##  7 Drama         394
    ##  8 Family         16
    ##  9 Fantasy        35
    ## 10 Foreign         1
    ## # ... with 11 more rows
…
## Table of the results for Lasso

``` r
lasso_grid %>%
  collect_metrics()
```

    ## # A tibble: 100 x 7
    ##      penalty .metric .estimator       mean     n  std_err .config               
    ##        <dbl> <chr>   <chr>           <dbl> <int>    <dbl> <chr>                 
    ##  1 0.00001   rmse    standard   114885330.     5 9306654. Preprocessor1_Model001
    ##  2 0.0000142 rmse    standard   114885330.     5 9306654. Preprocessor1_Model002
    ##  3 0.0000201 rmse    standard   114885330.     5 9306654. Preprocessor1_Model003
    ##  4 0.0000285 rmse    standard   114885330.     5 9306654. Preprocessor1_Model004
    ##  5 0.0000404 rmse    standard   114885330.     5 9306654. Preprocessor1_Model005
    ##  6 0.0000572 rmse    standard   114885330.     5 9306654. Preprocessor1_Model006
    ##  7 0.0000811 rmse    standard   114885330.     5 9306654. Preprocessor1_Model007
    ##  8 0.000115  rmse    standard   114885330.     5 9306654. Preprocessor1_Model008
    ##  9 0.000163  rmse    standard   114885330.     5 9306654. Preprocessor1_Model009
    ## 10 0.000231  rmse    standard   114885330.     5 9306654. Preprocessor1_Model010
    ## # ... with 90 more rows
…
#Create the grid
ridge_grid = tune_grid(
  wf %>% add_model(tune_ridge),#Add model to workflow from linear reg
  resamples = movie_cv, #k fold validation
  grid = data.frame(penalty = lambdas),#call penalities
    metrics = metric_set(rmse) #looking to minimize rmse
)
```

``` r
ridge_grid %>%
  collect_metrics()
```

    ## # A tibble: 100 x 7
    ##    penalty .metric .estimator       mean     n  std_err .config               
    ##      <dbl> <chr>   <chr>           <dbl> <int>    <dbl> <chr>                 
    ##  1  0.01   rmse    standard   114256619.    10 6874006. Preprocessor1_Model001
    ##  2  0.0118 rmse    standard   114256619.    10 6874006. Preprocessor1_Model002
    ##  3  0.0138 rmse    standard   114256619.    10 6874006. Preprocessor1_Model003
    ##  4  0.0163 rmse    standard   114256619.    10 6874006. Preprocessor1_Model004
    ##  5  0.0192 rmse    standard   114256619.    10 6874006. Preprocessor1_Model005
    ##  6  0.0226 rmse    standard   114256619.    10 6874006. Preprocessor1_Model006
    ##  7  0.0266 rmse    standard   114256619.    10 6874006. Preprocessor1_Model007
    ##  8  0.0313 rmse    standard   114256619.    10 6874006. Preprocessor1_Model008
    ##  9  0.0368 rmse    standard   114256619.    10 6874006. Preprocessor1_Model009
    ## 10  0.0433 rmse    standard   114256619.    10 6874006. Preprocessor1_Model010
    ## # ... with 90 more rows
…
``` r
#Quick overview of the results
els_grid %>%
  collect_metrics()
```

    ## # A tibble: 1,100 x 8
    ##     penalty mixture .metric .estimator      mean     n  std_err .config         
    ##       <dbl>   <dbl> <chr>   <chr>          <dbl> <int>    <dbl> <chr>           
    ##  1 1.00e-10       0 rmse    standard      1.13e8    10 7640466. Preprocessor1_M~
    ##  2 1.59e-10       0 rmse    standard      1.13e8    10 7640466. Preprocessor1_M~
    ##  3 2.54e-10       0 rmse    standard      1.13e8    10 7640466. Preprocessor1_M~
    ##  4 4.04e-10       0 rmse    standard      1.13e8    10 7640466. Preprocessor1_M~
    ##  5 6.43e-10       0 rmse    standard      1.13e8    10 7640466. Preprocessor1_M~
    ##  6 1.02e- 9       0 rmse    standard      1.13e8    10 7640466. Preprocessor1_M~
    ##  7 1.63e- 9       0 rmse    standard      1.13e8    10 7640466. Preprocessor1_M~
    ##  8 2.60e- 9       0 rmse    standard      1.13e8    10 7640466. Preprocessor1_M~
    ##  9 4.13e- 9       0 rmse    standard      1.13e8    10 7640466. Preprocessor1_M~
    ## 10 6.58e- 9       0 rmse    standard      1.13e8    10 7640466. Preprocessor1_M~
    ## # ... with 1,090 more rows
…
